1,7996
2,10431
3,6694
4,9051
5,6035
6,10565
7,11222
8,7970
9,7959
10,7726
11,6528
12,5853
13,11168
14,9668
15,9092
16,9628
17,7017
18,11141
19,11291
20,7940
21,7890
22,6676
23,7060
24,6090
25,6454
26,6276
27,11012
28,6566
29,7597
30,7381
31,7627
32,9113
33,6617
34,6217
35,6020
36,10671
37,6489
38,10869
39,6641
40,7793
41,7010
42,5645
43,5998
44,6149
45,6373
46,6550
47,9102
48,11263
49,9062
50,9053
51,11114
52,6679
53,8083
54,5766
55,7827
56,11175
57,11145
58,7736
59,10583
60,10789
61,6143
62,5618
63,6027
64,7336
65,6209
66,10839
67,7342
68,9689
69,6144
70,10507
71,10527
72,11238
73,6239
74,6129
75,6268
76,11247
77,7828
78,5617
79,6515
80,10095
81,5601
82,6290
83,8970
84,7966
85,10786
86,5307
87,6462
88,11181
89,10114
90,7532
91,7354
92,7488
93,6401
94,6595
95,11127
96,7762
97,5801
98,5827
99,6435
100,6648