1,2108
2,3031
3,2018
4,2846
5,1672
6,2985
7,3075
8,2127
9,2136
10,2123
11,1709
12,1644
13,3071
14,2876
15,2850
16,2975
17,2033
18,3015
19,3039
20,2124
21,2116
22,1999
23,2073
24,1662
25,1657
26,1693
27,3039
28,1624
29,2210
30,2164
31,2169
32,2817
33,2027
34,1681
35,1687
36,3090
37,1663
38,3041
39,2035
40,2181
41,2046
42,1601
43,1663
44,1660
45,1644
46,1663
47,2854
48,3029
49,2846
50,2862
51,2998
52,1978
53,2180
54,1662
55,2199
56,3046
57,2976
58,2160
59,3078
60,3022
61,1676
62,1640
63,1683
64,2125
65,1684
66,3130
67,2134
68,2953
69,1684
70,3008
71,3074
72,3041
73,1675
74,1682
75,1673
76,2942
77,2163
78,1605
79,1688
80,2981
81,1596
82,1681
83,2870
84,2116
85,3093
86,1586
87,1698
88,3033
89,3001
90,2140
91,2140
92,2132
93,1711
94,1976
95,3065
96,2156
97,1666
98,1647
99,1652
100,2036
