1,1635
2,2166
3,1435
4,1916
5,1257
6,2151
7,2260
8,1576
9,1576
10,1564
11,1297
12,1197
13,2281
14,2006
15,1937
16,2001
17,1438
18,2213
19,2283
20,1606
21,1592
22,1398
23,1441
24,1246
25,1313
26,1293
27,2175
28,1347
29,1529
30,1518
31,1568
32,1854
33,1409
34,1266
35,1241
36,2205
37,1326
38,2223
39,1438
40,1581
41,1464
42,1169
43,1211
44,1205
45,1322
46,1319
47,1992
48,2255
49,1931
50,1943
51,2266
52,1404
53,1659
54,1191
55,1574
56,2269
57,2256
58,1576
59,2170
60,2181
61,1267
62,1182
63,1248
64,1538
65,1289
66,2177
67,1493
68,1969
69,1246
70,2165
71,2172
72,2244
73,1274
74,1210
75,1311
76,2250
77,1607
78,1174
79,1324
80,2112
81,1155
82,1308
83,1947
84,1614
85,2227
86,1089
87,1311
88,2250
89,2138
90,1530
91,1495
92,1531
93,1350
94,1370
95,2259
96,1557
97,1189
98,1185
99,1328
100,1416
