all(4,8)=14493
all(4,9)=14674
all(4,10)=15213
all(4,11)=15403
all(4,12)=15836
all(4,13)=16195
all(4,14)=16166
all(4,15)=16311
all(4,16)=16403
all(5,8)=10120
all(5,9)=10469
all(5,10)=10606
all(5,11)=10957
all(5,12)=11080
all(5,13)=11283
all(5,14)=11442
all(5,15)=11649
all(5,16)=11560
all(6,8)=8011
all(6,9)=8166
all(6,10)=8357
all(6,11)=8499
all(6,12)=8749
all(6,13)=8764
all(6,14)=8856
all(6,15)=8938
all(6,16)=8964
